<svg width="13" height="15" viewBox="0 0 13 15" fill="none" xmlns="http://www.w3.org/2000/svg">
<path d="M0 13.4375C0 14.1758 0.574219 14.75 1.3125 14.75H10.9375C11.6484 14.75 12.25 14.1758 12.25 13.4375V6H0V13.4375ZM1.75 8.1875C1.75 7.96875 1.94141 7.75 2.1875 7.75H4.8125C5.03125 7.75 5.25 7.96875 5.25 8.1875V10.8125C5.25 11.0586 5.03125 11.25 4.8125 11.25H2.1875C1.94141 11.25 1.75 11.0586 1.75 10.8125V8.1875ZM10.9375 2.5H9.625V1.1875C9.625 0.96875 9.40625 0.75 9.1875 0.75H8.3125C8.06641 0.75 7.875 0.96875 7.875 1.1875V2.5H4.375V1.1875C4.375 0.96875 4.15625 0.75 3.9375 0.75H3.0625C2.81641 0.75 2.625 0.96875 2.625 1.1875V2.5H1.3125C0.574219 2.5 0 3.10156 0 3.8125V5.125H12.25V3.8125C12.25 3.10156 11.6484 2.5 10.9375 2.5Z" fill="#005EFF"/>
</svg>
