<svg width="60" height="60" viewBox="0 0 60 60" fill="none" xmlns="http://www.w3.org/2000/svg">
<path d="M57.1369 24.1044C56.1499 21.6476 54.789 19.3602 53.103 17.3243L51.8901 15.8602L53.3754 14.615L54.5882 16.0791C56.4025 18.2697 57.8669 20.731 58.929 23.3747L57.1369 24.1044Z" fill="#FFC107"/>
<path d="M12.0883 25.2825L10.2628 24.6419C11.3421 21.519 12.9734 18.618 15.0781 16.0787L15.4853 15.5871L16.9705 16.8323L16.5633 17.3239C14.6073 19.684 13.0913 22.3801 12.0883 25.2825Z" fill="#FFC107"/>
<path d="M16.2056 25.3375L14.4218 24.5876C15.1707 22.784 16.1389 21.0807 17.304 19.5165L18.8507 20.6834C17.7814 22.1189 16.893 23.6822 16.2056 25.3375Z" fill="#FFC107"/>
<path d="M56.2716 39.8004L54.4036 39.2995C54.8873 37.4759 55.1326 35.5966 55.1333 33.7092H57.0666C57.0659 35.7658 56.7987 37.8134 56.2716 39.8004Z" fill="#FFC107"/>
<path d="M53.4613 25.3375C52.774 23.6822 51.8855 22.1189 50.8162 20.6834L52.3629 19.5165C53.5281 21.0807 54.4962 22.784 55.2452 24.5876L53.4613 25.3375Z" fill="#FFC107"/>
<path d="M58.9997 47.3297V51.2197C58.9997 53.5416 56.409 55.5291 51.508 56.9672C47.0408 58.2777 41.1188 58.9997 34.833 58.9997C28.5473 58.9997 22.6253 58.2777 18.158 56.9672C13.257 55.5291 10.6664 53.5416 10.6664 51.2197V50.2472H12.5997V51.2197C12.5997 53.6558 21.058 57.0547 34.833 57.0547C48.608 57.0547 57.0664 53.6558 57.0664 51.2197V50.5548C55.8061 51.5127 53.9428 52.3624 51.508 53.0772C47.0408 54.3877 41.1188 55.1097 34.833 55.1097C33.8531 55.1097 32.8659 55.0915 31.898 55.0563L31.9681 53.1125C32.9118 53.1477 33.876 53.1647 34.833 53.1647C48.608 53.1647 57.0664 49.7658 57.0664 47.3297C57.0664 46.2952 55.4931 45.0808 52.859 44.0804L53.5405 42.2606C56.5577 43.4057 58.3363 44.7806 58.8463 46.3572C58.9484 46.6711 59.0002 46.9994 58.9997 47.3297Z" fill="#FFC107"/>
<path d="M48.6482 21.0591L48.3171 20.6603C48.2212 20.0181 47.9876 19.4044 47.6325 18.862C47.2774 18.3196 46.8092 17.8614 46.2605 17.5192C43.7028 15.9308 40.8445 14.895 37.8675 14.4777L37.5992 16.4044C40.3117 16.7847 42.916 17.7281 45.2467 19.1748C45.6094 19.3994 45.9089 19.7136 46.1166 20.0876C46.3243 20.4616 46.4333 20.8829 46.4333 21.3113C46.4333 21.7397 46.3243 22.161 46.1166 22.535C45.9089 22.909 45.6094 23.2232 45.2467 23.4478C41.7515 25.6193 37.6714 26.6436 33.5718 26.3786L36.6978 18.516C36.7599 18.3595 36.7805 18.1896 36.7576 18.0227C36.7347 17.8558 36.6691 17.6978 36.5673 17.5641L24.0006 1.03161L22.466 2.2132L34.698 18.3069L31.5817 26.1465H31.5805C30.7193 26.001 29.8684 25.7992 29.0333 25.5423V19.1274H27.1V28.7552C26.0091 28.5293 25.0289 27.9321 24.3246 27.0641C23.6203 26.1961 23.2349 25.1104 23.2333 23.9899V21.0724C23.2334 20.8145 23.1317 20.567 22.9506 20.3844L22.5011 19.9334C21.5042 18.9359 20.7138 17.7494 20.1758 16.4425C19.6378 15.1357 19.3627 13.7344 19.3667 12.3199V7.45741H17.4333V10.6059L9.47646 1L7.99021 2.2448L17.5119 13.7398C17.8147 16.52 19.0283 19.1198 20.9617 21.1296C19.7684 22.5834 18.7882 24.2016 18.0508 25.9349H17.4333C17.1769 25.9348 16.9309 26.0372 16.7494 26.2194L11.2334 31.77H1V33.715H11.6333C11.8898 33.715 12.1358 33.6127 12.3173 33.4305L17.8333 27.8799H20.279C20.0652 29.7655 19.2202 31.5219 17.8828 32.8604L16.7494 33.9994C16.627 34.1227 16.5398 34.2768 16.4968 34.4456C16.4539 34.6144 16.4567 34.7917 16.5051 34.959C16.5535 35.1263 16.6457 35.2775 16.772 35.3967C16.8983 35.516 17.054 35.5989 17.2231 35.6369L25.9231 37.5819C25.9921 37.5974 26.0626 37.6052 26.1333 37.605H30.9667C31.223 37.605 31.4689 37.7074 31.6502 37.8898C31.8315 38.0722 31.9333 38.3195 31.9333 38.5775C31.9333 38.8354 31.8315 39.0828 31.6502 39.2651C31.4689 39.4475 31.223 39.55 30.9667 39.55H26.2397L19.5769 38.0608L19.1564 39.9596L25.9231 41.4719C25.9921 41.4874 26.0626 41.4952 26.1333 41.495H32.9C33.1564 41.495 33.4023 41.5974 33.5835 41.7798C33.7648 41.9622 33.8667 42.2095 33.8667 42.4675C33.8667 42.7254 33.7648 42.9728 33.5835 43.1551C33.4023 43.3375 33.1564 43.44 32.9 43.44H26.2397L19.5769 41.9508L19.1564 43.8496L25.9231 45.3619C25.9921 45.3774 26.0626 45.3852 26.1333 45.385H30.9667C31.223 45.385 31.4689 45.4874 31.6502 45.6698C31.8315 45.8522 31.9333 46.0996 31.9333 46.3575C31.9333 46.6154 31.8315 46.8628 31.6502 47.0451C31.4689 47.2275 31.223 47.33 30.9667 47.33H26.2397L19.5769 45.8408L19.1564 47.7396L25.9231 49.2519C25.9921 49.2674 26.0626 49.2752 26.1333 49.275H29.0333C29.2897 49.275 29.5356 49.3774 29.7169 49.5598C29.8982 49.7422 30 49.9896 30 50.2475C30 50.5054 29.8982 50.7528 29.7169 50.9352C29.5356 51.1175 29.2897 51.22 29.0333 51.22H26.2397L17.7596 49.3236L10.1326 45.4871C9.9981 45.4201 9.85008 45.3851 9.7 45.385H1V47.33H9.47162L17.0007 51.1179C17.0715 51.153 17.1461 51.1795 17.2231 51.1969L25.9231 53.1419C25.9921 53.1574 26.0626 53.1652 26.1333 53.165H29.0333C29.8021 53.164 30.5392 52.8563 31.0828 52.3093C31.6265 51.7624 31.9323 51.0209 31.9333 50.2475C31.9338 49.879 31.8641 49.5138 31.7279 49.1716C32.2678 49.0244 32.7536 48.7225 33.126 48.3025H42.2863C44.0084 48.3021 45.6991 47.8386 47.1833 46.96C48.6675 46.0813 49.8912 44.8194 50.7277 43.305C52.6531 39.819 53.4849 35.8284 53.1137 31.8579C52.7426 27.8874 51.1858 24.1228 48.6482 21.0591ZM20.175 25.9349C20.5063 25.2464 20.8821 24.5804 21.3 23.9413V23.9899C21.299 24.6648 21.3988 25.3361 21.596 25.9811C21.5004 25.9503 21.4005 25.9347 21.3 25.9349H20.175ZM49.0385 42.3605C48.3691 43.5716 47.3902 44.5807 46.2031 45.2834C45.016 45.9861 43.6637 46.357 42.2863 46.3575H33.8667C33.8672 45.989 33.7975 45.6237 33.6612 45.2816C34.2754 45.1138 34.8175 44.7473 35.2041 44.2387C35.5906 43.7301 35.8 43.1077 35.8 42.4675C35.8 41.8272 35.5906 41.2048 35.2041 40.6962C34.8175 40.1876 34.2754 39.8211 33.6612 39.6533C33.7975 39.3112 33.8672 38.946 33.8667 38.5775C33.8656 37.804 33.5598 37.0625 33.0161 36.5156C32.4725 35.9687 31.7355 35.661 30.9667 35.66H26.2397L19.3606 34.1222C21.097 32.3315 22.1247 29.9651 22.251 27.4666C22.8502 28.4813 23.7014 29.3218 24.721 29.9058C25.7405 30.4897 26.8935 30.797 28.0667 30.7975C28.1936 30.7975 28.3193 30.7724 28.4366 30.7235C28.5539 30.6746 28.6605 30.603 28.7503 30.5127C28.84 30.4224 28.9113 30.3152 28.9598 30.1972C29.0084 30.0791 29.0334 29.9527 29.0333 29.825V27.5687C31.9187 28.3745 34.9384 28.5714 37.903 28.1472C40.8676 27.7229 43.713 26.6867 46.2605 25.1034C46.9701 24.6618 47.5414 24.0276 47.9087 23.2739C48.745 24.4369 49.4376 25.6978 49.9713 27.029C49.4743 27.5656 48.9077 28.0326 48.2869 28.4172C46.6737 29.4152 44.9559 30.231 43.1648 30.8497L43.7931 32.6902C45.7189 32.0248 47.5656 31.147 49.2995 30.0729C49.7783 29.7777 50.231 29.4418 50.6528 29.0688C51.0353 30.4896 51.2403 31.9527 51.263 33.4244C48.7741 34.9579 46.0852 36.1354 43.2735 36.923L43.7931 38.7975C46.3577 38.0791 48.8275 37.0539 51.1495 35.7438C50.8836 38.0673 50.1664 40.3154 49.0385 42.3605Z" fill="#093A66"/>
<path d="M37.8199 39.8937L37.6472 37.9564C38.2718 37.9001 38.9029 37.8239 39.523 37.73L39.8108 39.6533C39.1527 39.753 38.4828 39.8339 37.8199 39.8937Z" fill="#FFC107"/>
<path d="M37.8383 34.0277L37.6281 32.0942C38.2501 32.0257 38.877 31.9332 39.4911 31.8192L39.8419 33.7319C39.1814 33.8545 38.5073 33.954 37.8383 34.0277Z" fill="#FFC107"/>
</svg>
