<svg width="60" height="60" viewBox="0 0 60 60" fill="none" xmlns="http://www.w3.org/2000/svg">
<path d="M49.9484 33.942C50.483 32.7378 50.787 31.3722 50.787 30.0795C50.787 28.406 50.2664 26.7757 49.3084 25.4159C49.6333 24.5891 49.8029 23.7009 49.8029 22.8105C49.8029 20.9368 49.0739 19.2311 47.8863 17.9589H48.8043C50.8032 17.9589 52.4294 16.3327 52.4294 14.3338C52.4294 12.335 50.8032 10.7088 48.8043 10.7088H45.4202V8.50939C45.4202 5.22476 42.7479 2.55243 39.4633 2.55243H30.9862C27.7016 2.55243 25.0294 5.22476 25.0294 8.50939V10.7088H21.6165C21.1273 10.7088 20.6608 10.8067 20.2347 10.983C20.2127 10.8679 20.175 10.7551 20.1167 10.6494L17.9251 6.66413L20.117 2.67874C20.31 2.32779 20.3034 1.90105 20.0996 1.55622C19.8957 1.2115 19.525 1 19.1245 1H5.53059C4.90504 1 4.39776 1.50728 4.39776 2.13283V19.0356C4.30747 19.0627 4.21741 19.0916 4.12815 19.1242C1.66334 20.023 0.389366 22.7594 1.28826 25.2241C1.28985 25.2287 1.29155 25.2331 1.29325 25.2376L6.37477 38.6428C7.28499 41.0441 9.43567 42.7153 11.9872 43.0044L19.1245 43.813V57.8679C19.1245 58.4934 19.6318 59.0007 20.2573 59.0007H57.8672C58.4927 59.0007 59 58.4934 59 57.8679V46.8845C58.9999 40.947 55.2245 35.8747 49.9484 33.942ZM22.6092 33.1068C22.1782 32.1683 21.9285 31.0769 21.9285 30.0795C21.9285 28.6976 22.4217 27.3565 23.3171 26.303C23.6156 25.952 23.6717 25.455 23.4588 25.0462C23.0963 24.3499 22.9126 23.5979 22.9126 22.8105C22.9126 20.9654 23.9481 19.3579 25.4683 18.5377V21.4098C25.4683 25.1521 27.5905 28.4064 30.6935 30.0375V33.1068H22.6092ZM42.6856 17.9589H42.6872V21.4097C42.6872 25.5324 39.3332 28.8863 35.2105 28.8863C31.0878 28.8863 27.7339 25.5324 27.7339 21.4097V17.9595C27.7441 17.9595 27.754 17.9588 27.7642 17.9588H42.6856V17.9589ZM37.469 34.0978L35.2104 36.3564L32.9589 34.1049V30.8867C33.6821 31.0585 34.4353 31.1522 35.2104 31.1522C35.988 31.1522 36.7436 31.058 37.469 30.8851V34.0978ZM31.0224 35.3725L33.6084 37.9585L30.5256 41.0412L26.8676 35.3725H31.0224ZM39.3987 35.3725H43.5533L39.8954 41.0412L36.8127 37.9585L39.3987 35.3725ZM45.8968 35.3927C46.9891 35.4562 48.0407 35.6727 49.031 36.0209V56.7351H45.8968V35.3927ZM47.7305 33.3363C46.9168 33.186 46.0785 33.1068 45.2221 33.1068H39.7348V30.0339C42.834 28.4015 44.9529 25.1493 44.9529 21.4098V18.523C46.4887 19.3384 47.5374 20.9539 47.5374 22.8105C47.5374 23.5979 47.3536 24.35 46.9911 25.0462C46.7783 25.4549 46.8343 25.952 47.1328 26.303C48.0282 27.3565 48.5215 28.6976 48.5215 30.0795C48.5214 31.1647 48.2266 32.3543 47.7305 33.3363ZM27.2951 8.50939C27.2951 6.47393 28.951 4.81808 30.9863 4.81808H39.4634C41.4988 4.81808 43.1547 6.47393 43.1547 8.50939V10.7088H27.2951V8.50939ZM21.6166 12.9744H48.8044C49.554 12.9744 50.1638 13.5842 50.1638 14.3338C50.1638 15.0834 49.554 15.6932 48.8044 15.6932H21.6166C20.867 15.6932 20.2572 15.0834 20.2572 14.3338C20.2572 13.5842 20.867 12.9744 21.6166 12.9744ZM6.6633 3.26565H17.2084L15.6396 6.11822C15.4526 6.45819 15.4526 6.87019 15.6396 7.21016L17.2084 10.0626H6.6633V3.26565ZM18.5988 12.3283C18.2155 12.9031 17.9916 13.5927 17.9916 14.3338C17.9916 16.3327 19.6177 17.9589 21.6166 17.9589H22.5634C21.3758 19.2311 20.6468 20.937 20.6468 22.8105C20.6468 23.7009 20.8164 24.5891 21.1413 25.4159C20.1834 26.7757 19.6627 28.406 19.6627 30.0795C19.6627 31.0797 19.8427 32.1234 20.1736 33.105H14.2905L10.2279 21.9641C9.79251 20.7701 8.91819 19.817 7.76622 19.2806C7.40961 19.1147 7.03962 18.995 6.6633 18.9213V12.3283H18.5988ZM4.90413 21.2527C5.52957 21.0246 6.20643 21.0538 6.80989 21.3347C7.41334 21.6156 7.87123 22.1149 8.09938 22.7403L8.57483 24.0441L3.99051 25.9616L3.41435 24.4417C2.94797 23.1523 3.6152 21.7228 4.90413 21.2527ZM8.49315 37.8396L4.79402 28.0814L9.35184 26.1748L12.4336 34.6259C12.5966 35.073 13.0217 35.3706 13.4979 35.3706H19.1244V41.5328L12.2422 40.753C10.5377 40.5601 9.10114 39.4437 8.49315 37.8396ZM21.39 35.3725H24.5242V44.4234C24.5242 45.0489 25.0315 45.5562 25.6571 45.5562C26.2826 45.5562 26.7899 45.0489 26.7899 44.4234V39.4304L29.3828 43.4486C29.5685 43.7362 29.8742 43.9245 30.2146 43.9608C30.2548 43.9651 30.2949 43.9672 30.3348 43.9672C30.6336 43.9672 30.9222 43.8489 31.1358 43.6354L35.2106 39.5605L39.2855 43.6354C39.4992 43.8489 39.7878 43.9672 40.0864 43.9672C40.1264 43.9672 40.1665 43.9651 40.2066 43.9608C40.5471 43.9245 40.8528 43.7362 41.0385 43.4486L43.6314 39.4304V49.3814H39.532C38.9065 49.3814 38.3992 49.8887 38.3992 50.5143C38.3992 51.1398 38.9065 51.6471 39.532 51.6471H43.6314V56.7351H26.7899V54.6187C26.7899 53.9932 26.2826 53.4859 25.6571 53.4859C25.0315 53.4859 24.5242 53.9932 24.5242 54.6187V56.7351H21.39V35.3725ZM56.7342 56.7351H51.2967V37.11C54.5586 39.1445 56.7342 42.7649 56.7342 46.8845V56.7351Z" fill="#093A66"/>
<path d="M35.2105 25.8036C35.7913 25.8036 36.372 25.5825 36.8142 25.1405C37.2565 24.6981 37.2551 23.9808 36.8126 23.5383C36.3701 23.096 35.6512 23.0962 35.209 23.5383C34.7665 23.096 34.0494 23.096 33.6068 23.5383C33.1644 23.9807 33.1644 24.698 33.6068 25.1405C34.0491 25.5825 34.6297 25.8036 35.2105 25.8036Z" fill="#FFC107"/>
<path d="M25.6574 50.6539C25.9553 50.6539 26.2476 50.5328 26.4583 50.322C26.6689 50.1113 26.7902 49.8191 26.7902 49.5211C26.7902 49.2231 26.669 48.9309 26.4583 48.7203C26.2464 48.5096 25.9553 48.3882 25.6574 48.3882C25.3594 48.3882 25.0672 48.5095 24.8565 48.7203C24.6446 48.9309 24.5245 49.2231 24.5245 49.5211C24.5245 49.8191 24.6446 50.1113 24.8565 50.322C25.0672 50.5328 25.3583 50.6539 25.6574 50.6539Z" fill="#FFC107"/>
</svg>
